…
Save the object and load as a table for the future

```{r}
write.table(dorsal.markers, "dorsal.markers.txt", sep ="\t", row.names = TRUE, col.names = TRUE)
markers_table <- read.table("dorsal.markers.txt", header = TRUE)
```

Find the top 5 markers for each cluster

```{r}
top5 <- markers_table %>% group_by(cluster) %>% top_n(n = 5, wt = avg_log2FC)
top5
```
```{r}
## # A tibble: 95 x 7
## # Groups:   cluster [19]
##    p_val avg_log2FC pct.1 pct.2 p_val_adj cluster gene         
##    <dbl>      <dbl> <dbl> <dbl>     <dbl>   <int> <chr>        
##  1     0       3.87 0.923 0.147         0       0 Slc6a11      
##  2     0       3.74 0.809 0.12          0       0 RP23-168E14.7
##  3     0       3.64 0.752 0.091         0       0 Htra1        
##  4     0       3.62 0.963 0.283         0       0 Aldoc        
##  5     0       3.50 0.656 0.046         0       0 Cldn10       
##  6     0       3.78 0.999 0.158         0       1 Mal          
##  7     0       3.50 1     0.62          0       1 Plp1         
##  8     0       3.35 0.987 0.134         0       1 Trf          
##  9     0       3.12 1     0.154         0       1 Mog          
## 10     0       3.05 1     0.948         0       1 Fth1         
## # ... with 85 more rows
```
…
